simulation/qsim/fase1.msim.vcd
$comment
	File created using the following command:
		vcd file fase1.msim.vcd -direction
$end
$date
	Tue Jun 08 16:18:44 2021
$end
$version
	ModelSim Version 10.5b
$end
$timescale
	1ps
$end

$scope module syncgen_vhd_vec_tst $end
$var wire 1 ! clock_50 $end
$var wire 1 " pulseOut0 $end
$var wire 1 # pulseOut1 $end
$var wire 1 $ pulseOut2 $end

$scope module i1 $end
$var wire 1 % gnd $end
$var wire 1 & vcc $end
$var wire 1 ' unknown $end
$var wire 1 ( devoe $end
$var wire 1 ) devclrn $end
$var wire 1 * devpor $end
$var wire 1 + ww_devoe $end
$var wire 1 , ww_devclrn $end
$var wire 1 - ww_devpor $end
$var wire 1 . ww_clock_50 $end
$var wire 1 / ww_pulseOut0 $end
$var wire 1 0 ww_pulseOut1 $end
$var wire 1 1 ww_pulseOut2 $end
$var wire 1 2 \pulseOut0~output_o\ $end
$var wire 1 3 \pulseOut1~output_o\ $end
$var wire 1 4 \pulseOut2~output_o\ $end
$var wire 1 5 \clock_50~input_o\ $end
$var wire 1 6 \s_counter[0]~6_combout\ $end
$var wire 1 7 \s_counter[0]~7\ $end
$var wire 1 8 \s_counter[1]~8_combout\ $end
$var wire 1 9 \s_counter[1]~9\ $end
$var wire 1 : \s_counter[2]~10_combout\ $end
$var wire 1 ; \s_counter[2]~11\ $end
$var wire 1 < \s_counter[3]~12_combout\ $end
$var wire 1 = \s_counter[3]~13\ $end
$var wire 1 > \s_counter[4]~14_combout\ $end
$var wire 1 ? \s_counter[4]~15\ $end
$var wire 1 @ \s_counter[5]~16_combout\ $end
$var wire 1 A \LessThan0~0_combout\ $end
$var wire 1 B \Equal0~0_combout\ $end
$var wire 1 C \Equal0~1_combout\ $end
$var wire 1 D \Mod0|auto_generated|divider|divider|add_sub_3_result_int[1]~1\ $end
$var wire 1 E \Mod0|auto_generated|divider|divider|add_sub_3_result_int[2]~3\ $end
$var wire 1 F \Mod0|auto_generated|divider|divider|add_sub_3_result_int[3]~4_combout\ $end
$var wire 1 G \Mod0|auto_generated|divider|divider|add_sub_3_result_int[3]~5\ $end
$var wire 1 H \Mod0|auto_generated|divider|divider|add_sub_3_result_int[4]~6_combout\ $end
$var wire 1 I \Mod0|auto_generated|divider|divider|StageOut[21]~24_combout\ $end
$var wire 1 J \Mod0|auto_generated|divider|divider|StageOut[21]~25_combout\ $end
$var wire 1 K \Mod0|auto_generated|divider|divider|StageOut[20]~26_combout\ $end
$var wire 1 L \Mod0|auto_generated|divider|divider|add_sub_3_result_int[2]~2_combout\ $end
$var wire 1 M \Mod0|auto_generated|divider|divider|StageOut[20]~27_combout\ $end
$var wire 1 N \Mod0|auto_generated|divider|divider|StageOut[19]~28_combout\ $end
$var wire 1 O \Mod0|auto_generated|divider|divider|add_sub_3_result_int[1]~0_combout\ $end
$var wire 1 P \Mod0|auto_generated|divider|divider|StageOut[19]~29_combout\ $end
$var wire 1 Q \Mod0|auto_generated|divider|divider|StageOut[18]~30_combout\ $end
$var wire 1 R \Mod0|auto_generated|divider|divider|StageOut[18]~31_combout\ $end
$var wire 1 S \Mod0|auto_generated|divider|divider|add_sub_4_result_int[1]~1\ $end
$var wire 1 T \Mod0|auto_generated|divider|divider|add_sub_4_result_int[2]~3\ $end
$var wire 1 U \Mod0|auto_generated|divider|divider|add_sub_4_result_int[3]~5\ $end
$var wire 1 V \Mod0|auto_generated|divider|divider|add_sub_4_result_int[4]~7\ $end
$var wire 1 W \Mod0|auto_generated|divider|divider|add_sub_4_result_int[5]~8_combout\ $end
$var wire 1 X \Mod0|auto_generated|divider|divider|StageOut[28]~39_combout\ $end
$var wire 1 Y \Mod0|auto_generated|divider|divider|add_sub_4_result_int[4]~6_combout\ $end
$var wire 1 Z \Mod0|auto_generated|divider|divider|StageOut[28]~32_combout\ $end
$var wire 1 [ \Mod0|auto_generated|divider|divider|StageOut[27]~40_combout\ $end
$var wire 1 \ \Mod0|auto_generated|divider|divider|add_sub_4_result_int[3]~4_combout\ $end
$var wire 1 ] \Mod0|auto_generated|divider|divider|StageOut[27]~33_combout\ $end
$var wire 1 ^ \Mod0|auto_generated|divider|divider|StageOut[26]~41_combout\ $end
$var wire 1 _ \Mod0|auto_generated|divider|divider|add_sub_4_result_int[2]~2_combout\ $end
$var wire 1 ` \Mod0|auto_generated|divider|divider|StageOut[26]~34_combout\ $end
$var wire 1 a \Mod0|auto_generated|divider|divider|StageOut[25]~35_combout\ $end
$var wire 1 b \Mod0|auto_generated|divider|divider|add_sub_4_result_int[1]~0_combout\ $end
$var wire 1 c \Mod0|auto_generated|divider|divider|StageOut[25]~36_combout\ $end
$var wire 1 d \Mod0|auto_generated|divider|divider|StageOut[24]~37_combout\ $end
$var wire 1 e \Mod0|auto_generated|divider|divider|StageOut[24]~38_combout\ $end
$var wire 1 f \Mod0|auto_generated|divider|divider|add_sub_5_result_int[1]~1\ $end
$var wire 1 g \Mod0|auto_generated|divider|divider|add_sub_5_result_int[2]~3\ $end
$var wire 1 h \Mod0|auto_generated|divider|divider|add_sub_5_result_int[3]~5\ $end
$var wire 1 i \Mod0|auto_generated|divider|divider|add_sub_5_result_int[4]~7\ $end
$var wire 1 j \Mod0|auto_generated|divider|divider|add_sub_5_result_int[5]~9\ $end
$var wire 1 k \Mod0|auto_generated|divider|divider|add_sub_5_result_int[6]~10_combout\ $end
$var wire 1 l \Equal1~0_combout\ $end
$var wire 1 m \Equal1~1_combout\ $end
$var wire 1 n \Equal1~2_combout\ $end
$var wire 1 o \Equal1~3_combout\ $end
$var wire 1 p \Mod0|auto_generated|divider|divider|add_sub_5_result_int[3]~4_combout\ $end
$var wire 1 q \Mod0|auto_generated|divider|divider|add_sub_5_result_int[4]~6_combout\ $end
$var wire 1 r \Mod0|auto_generated|divider|divider|add_sub_5_result_int[5]~8_combout\ $end
$var wire 1 s \Equal1~4_combout\ $end
$var wire 1 t \Mod0|auto_generated|divider|divider|add_sub_5_result_int[1]~0_combout\ $end
$var wire 1 u \Mod0|auto_generated|divider|divider|add_sub_5_result_int[2]~2_combout\ $end
$var wire 1 v \Equal1~5_combout\ $end
$var wire 1 w \Equal1~6_combout\ $end
$var wire 1 x s_counter [5] $end
$var wire 1 y s_counter [4] $end
$var wire 1 z s_counter [3] $end
$var wire 1 { s_counter [2] $end
$var wire 1 | s_counter [1] $end
$var wire 1 } s_counter [0] $end
$upscope $end
$upscope $end
$enddefinitions $end
#0
$dumpvars
0!
0"
1#
1$
0%
1&
x'
1(
1)
1*
1+
1,
1-
0.
0/
10
11
02
13
14
05
16
07
08
19
0:
0;
0<
1=
0>
0?
0@
0A
1B
1C
0D
1E
0F
0G
1H
0I
0J
0K
1L
0M
0N
1O
0P
0Q
0R
0S
1T
0U
1V
1W
0X
1Y
0Z
0[
0\
0]
0^
1_
0`
0a
1b
0c
0d
0e
0f
1g
0h
1i
0j
1k
1l
1m
1n
1o
0p
1q
1r
0s
1t
1u
0v
1w
0x
0y
0z
0{
0|
0}
$end
#5000
1!
1.
15
1}
06
17
0B
0w
0C
18
04
01
03
0$
00
0#
#10000
0!
0.
05
#15000
1!
1.
15
1|
0}
16
07
1w
08
09
1d
0n
0o
0t
1f
1:
18
19
0:
0u
0g
0w
14
1p
1v
11
1$
04
01
0$
#20000
0!
0.
05
#25000
1!
1.
15
1}
06
17
08
09
1:
#30000
0!
0.
05
#35000
1!
1.
15
0|
1{
0}
16
07
0:
1;
1Q
1a
18
19
0d
1n
1o
1t
0f
1:
0;
1u
0m
0b
1S
1<
08
0_
0T
0o
0<
0u
0v
1w
0w
1\
14
11
04
1$
01
0$
#40000
0!
0.
05
#45000
1!
1.
15
1}
06
17
18
#50000
0!
0.
05
#55000
1!
1.
15
1|
0}
16
07
08
09
1d
0n
0t
1f
0:
1;
18
19
1:
0;
1<
1u
1v
0v
0<
#60000
0!
0.
05
#65000
1!
1.
15
1}
06
17
08
09
0:
1;
1<
#70000
0!
0.
05
#75000
1!
1.
15
0|
0{
1z
0}
16
07
0<
0=
0O
1D
1N
1^
1:
0;
0Q
0a
18
19
0d
1n
1t
0f
0:
0u
1b
0S
1<
1=
0p
1h
1_
0L
0E
1>
08
1F
0q
0i
0>
0_
1u
1g
1p
0h
0r
1j
0k
1q
1i
1r
0j
1k
#80000
0!
0.
05
#85000
1!
1.
15
1}
06
17
18
#90000
0!
0.
05
#95000
1!
1.
15
1|
0}
16
07
08
09
1d
0n
0t
1f
1:
18
19
0:
0u
0g
0p
1h
1v
0q
0i
0r
1j
0k
1s
1w
14
11
1$
#100000
0!
0.
05
#105000
1!
1.
15
1}
06
17
0w
08
09
1:
04
01
0$
#110000
0!
0.
05
#115000
1!
1.
15
0|
1{
0}
16
07
1w
0:
1;
1Q
1a
18
19
0d
1n
1t
0f
1:
0;
1u
0b
1S
0<
0=
08
1>
1_
1<
1=
0u
0v
14
0w
0>
11
1$
04
01
0$
#120000
0!
0.
05
#125000
1!
1.
15
1}
06
17
18
#130000
0!
0.
05
#135000
1!
1.
15
1|
0}
16
07
08
09
1d
0n
0t
1f
0:
1;
18
19
1:
0;
0<
0=
1u
1v
1w
0v
1>
1<
1=
0>
0w
14
11
04
1$
01
0$
#140000
0!
0.
05
#145000
1!
1.
15
1}
06
17
08
09
0:
1;
0<
0=
1>
#150000
0!
0.
05
#155000
1!
1.
15
0|
0{
0z
1y
0}
16
07
0>
1?
1L
1K
1[
1<
1=
1O
0D
0N
0^
1:
0;
0Q
0a
18
19
1B
0d
1n
1t
0f
0:
0u
1b
0S
0<
1p
0h
1m
0_
0L
1>
0?
1q
0l
0\
1U
1@
08
0Y
0V
0@
0q
0s
1_
1T
1u
1g
0p
1\
0U
0W
0[
1`
1c
0n
1Y
1V
1]
1s
0m
1W
1Z
0u
0g
1p
1l
0s
0p
1h
1r
0Z
1[
0]
0`
0c
1n
1u
1g
1p
0h
0l
0r
1m
1q
0q
0p
1s
#160000
0!
0.
05
#165000
1!
1.
15
1}
06
17
0B
18
#170000
0!
0.
05
#175000
1!
1.
15
1|
0}
16
07
08
09
1d
0n
0t
1f
1:
18
19
0:
0u
0g
1p
1v
1w
0s
0w
14
11
04
1$
01
0$
#180000
0!
0.
05
#185000
1!
1.
15
1}
06
17
08
09
1:
#190000
0!
0.
05
#195000
1!
1.
15
0|
1{
0}
16
07
0:
1;
1Q
1a
18
19
0d
1n
1t
0f
1:
0;
1u
0m
0b
1S
1<
08
0_
0T
0<
0u
0v
0\
1U
0Y
0V
0W
0[
0a
1u
1g
1m
1q
1i
1l
1r
0j
0p
1k
1o
1w
14
11
1$
#200000
0!
0.
05
#205000
1!
1.
15
1}
06
17
0w
18
04
01
0$
#210000
0!
0.
05
#215000
1!
1.
15
1|
0}
16
07
1w
08
09
1e
0n
0o
0t
1f
0:
1;
18
19
1:
0;
1<
0u
0g
0w
14
1p
1v
0<
11
1$
04
01
0$
#220000
0!
0.
05
#225000
1!
1.
15
1}
06
17
08
09
0:
1;
1<
#230000
0!
0.
05
#235000
1!
1.
15
0|
0{
1z
0}
16
07
0<
0=
0O
1D
1N
1:
0;
0Q
18
19
0e
1n
1o
1t
0f
0:
1b
0S
1<
1=
1_
1L
0>
1?
08
1@
1`
1>
0?
0_
1c
0n
1u
1g
0v
1w
0o
0u
0g
0`
0@
0w
14
11
1$
04
01
0$
#240000
0!
0.
05
#245000
1!
1.
15
1}
06
17
18
#250000
0!
0.
05
#255000
1!
1.
15
1|
0}
16
07
08
09
1e
0t
1f
1:
18
19
0:
1u
1v
0v
#260000
0!
0.
05
#265000
1!
1.
15
1}
06
17
08
09
1:
#270000
0!
0.
05
#275000
1!
1.
15
0|
1{
0}
16
07
0:
1;
1Q
18
19
0e
1t
0f
1:
0;
0b
1S
0<
0=
08
0>
1?
1_
0c
1n
1<
1=
0u
1>
0?
1o
1u
1g
1`
0n
1@
0o
1w
0@
0w
14
11
04
1$
01
0$
#280000
0!
0.
05
#285000
1!
1.
15
1}
06
17
18
#290000
0!
0.
05
#295000
1!
1.
15
1|
0}
16
07
08
09
1e
0t
1f
0:
1;
18
19
1:
0;
0<
0=
0u
0g
0p
1h
1v
0>
1?
1<
1=
1>
0?
1@
0q
0i
0r
1j
0@
0k
1s
1w
14
11
1$
#300000
0!
0.
05
#305000
1!
1.
15
1}
06
17
0w
08
09
0:
1;
04
0<
0=
01
0$
0>
1?
1@
#310000
0!
0.
05
#315000
1!
1.
15
0|
0{
0z
0y
1x
0}
16
07
1w
0@
0F
1G
1I
1>
0?
0L
0K
1<
1=
1O
0D
0N
1:
0;
0Q
18
19
1B
0e
1t
0f
0:
1b
0S
0<
0_
1L
1E
0>
1\
0U
1@
1Y
0H
08
0I
1P
1Z
0Y
1]
1F
0G
1M
0`
1_
1T
1c
1u
1g
0v
14
0w
0u
0g
1`
0h
1H
1J
1q
0Z
1r
0m
0_
0T
1Y
1V
11
1$
1W
1Z
0\
1U
0`
0r
0s
0Y
0V
1I
0J
0M
0P
0q
1h
1q
1_
1T
1\
0U
0W
1s
1p
0h
1Y
1r
1X
0Z
0]
0c
0l
1n
04
1u
1g
1m
1i
0X
1Z
1c
1l
0Y
1]
0\
1`
0n
0s
01
0$
0]
0q
0i
0Z
0u
0g
0m
0r
0p
1h
1q
1i
1m
1r
0j
0q
0i
0r
1j
1k
0k
1s
#320000
0!
0.
05
#325000
1!
1.
15
1}
06
17
0B
18
#330000
0!
0.
05
#335000
1!
1.
15
1|
0}
16
07
08
09
1e
0t
1f
1:
18
19
0:
1u
1v
1w
0v
0w
14
11
04
1$
01
0$
#340000
0!
0.
05
#345000
1!
1.
15
1}
06
17
08
09
1:
#350000
0!
0.
05
#355000
1!
1.
15
0|
1{
0}
16
07
0:
1;
1Q
18
19
0e
1t
0f
1:
0;
0b
1S
1<
08
0_
0T
0c
0<
0u
1u
1g
1\
0`
1n
1]
0h
0m
#360000
0!
0.
05
#365000
1!
1.
15
1}
06
17
18
#370000
0!
0.
05
#375000
1!
1.
15
1|
0}
16
07
08
09
1e
0n
0t
1f
0:
1;
18
19
1:
0;
1<
0u
0g
1p
1v
0<
1w
0s
0w
14
11
04
1$
01
0$
#380000
0!
0.
05
#385000
1!
1.
15
1}
06
17
08
09
0:
1;
1<
#390000
0!
0.
05
#395000
1!
1.
15
0|
0{
1z
0}
16
07
0<
0=
0O
1D
1N
1:
0;
0Q
18
19
0e
1n
1t
0f
0:
1b
0S
1<
1=
1_
0L
0E
1>
08
0F
1G
1`
0>
0_
1c
0n
1u
1g
0v
0u
0g
0`
0H
0I
0N
1_
1T
1Y
1V
1W
1Z
0\
1`
0p
1h
1r
0Z
0]
0`
0c
1n
1u
1g
1p
0h
0r
1m
1q
1i
0p
1r
0j
1k
1o
1w
14
11
1$
#400000
0!
0.
05
#405000
1!
1.
15
1}
06
17
0w
18
04
01
0$
#410000
0!
0.
05
#415000
1!
1.
15
1|
0}
16
07
1w
08
09
1d
0n
0o
0t
1f
1:
18
19
0:
0u
0g
0w
14
1p
1v
11
1$
04
01
0$
#420000
0!
0.
05
#425000
1!
1.
15
1}
06
17
08
09
1:
#430000
0!
0.
05
#435000
1!
1.
15
0|
1{
0}
16
07
0:
1;
1R
1a
18
19
0d
1n
1o
1t
0f
1:
0;
1u
0m
0b
1S
0<
0=
08
1>
0_
0T
0o
1<
1=
0u
0v
1w
0>
0w
1\
14
11
04
1$
01
0$
#440000
0!
0.
05
#445000
1!
1.
15
1}
06
17
18
#450000
0!
0.
05
#455000
1!
1.
15
1|
0}
16
07
08
09
1d
0n
0t
1f
0:
1;
18
19
1:
0;
0<
0=
1u
1v
0v
1>
1<
1=
0>
#460000
0!
0.
05
#465000
1!
1.
15
1}
06
17
08
09
0:
1;
0<
0=
1>
#470000
0!
0.
05
#475000
1!
1.
15
0|
0{
0z
1y
0}
16
07
0>
1?
1A
1L
1<
1=
1O
0D
1:
0;
0R
0a
18
19
1B
0d
1n
1t
0f
0A
0:
0u
1m
1b
0S
0<
0L
1P
1^
1>
0?
1M
1[
0@
08
0q
0i
0l
0\
1U
1@
0p
1h
0m
0M
0[
1o
1u
1g
1p
0h
1w
1l
1\
0U
0Y
0V
0o
0r
1j
0k
0w
0W
1Y
1V
1q
1i
1r
0j
1W
1Z
1]
0^
1c
0n
14
0u
0g
0p
0q
0i
0r
1j
0Z
0]
1^
0c
1n
1k
11
04
1$
1u
1g
1q
1i
0k
1h
01
0$
0q
0i
1r
0j
1p
0h
1q
1i
1k
0r
1j
0k
1r
0j
1k
#480000
0!
0.
05
#485000
1!
1.
15
1}
06
17
0B
1A
18
#490000
0!
0.
05
#495000
1!
1.
15
0y
0x
0}
16
07
1B
0@
1F
0G
0>
0A
1L
1E
0F
1M
1[
1H
1J
1X
1C
08
0r
1j
0Y
0V
0M
0P
0[
0^
0q
0i
0l
0\
1U
0J
0X
0p
1m
1q
1i
1l
1_
1T
1\
0U
0W
0k
13
1c
1Y
1V
1]
0\
1`
0n
1r
0j
10
1#
1k
1p
0]
0q
0i
0m
1W
1Z
0u
0g
0p
1h
0Z
0`
0c
1n
1j
1q
1i
0k
1u
1g
1p
0h
0j
1m
0q
0i
0r
1j
1k
1q
1i
0p
1r
0j
1o
0k
0o
1w
1k
1o
0w
1w
14
11
04
1$
01
14
0$
11
1$
#500000
0!
0.
05
#505000
1!
1.
15
1}
06
17
0B
0w
0C
18
04
01
03
0$
00
0#
#510000
0!
0.
05
#515000
1!
1.
15
1|
0}
16
07
1w
08
09
1d
0n
0o
0t
1f
1:
18
19
0:
0u
0g
0w
14
1p
1v
11
1$
04
01
0$
#520000
0!
0.
05
#525000
1!
1.
15
1}
06
17
08
09
1:
#530000
0!
0.
05
#535000
1!
1.
15
0|
1{
0}
16
07
0:
1;
1Q
1a
18
19
0d
1n
1o
1t
0f
1:
0;
1u
0m
0b
1S
1<
08
0_
0T
0o
0<
0u
0v
1w
0w
1\
14
11
04
1$
01
0$
#540000
0!
0.
05
#545000
1!
1.
15
1}
06
17
18
#550000
0!
0.
05
#555000
1!
1.
15
1|
0}
16
07
08
09
1d
0n
0t
1f
0:
1;
18
19
1:
0;
1<
1u
1v
0v
0<
#560000
0!
0.
05
#565000
1!
1.
15
1}
06
17
08
09
0:
1;
1<
#570000
0!
0.
05
#575000
1!
1.
15
0|
0{
1z
0}
16
07
0<
0=
0O
1D
1N
1^
1:
0;
0Q
0a
18
19
0d
1n
1t
0f
0:
0u
1b
0S
1<
1=
0p
1h
1_
0L
0E
1>
08
1F
0q
0i
0>
0_
1u
1g
1p
0h
0r
1j
0k
1q
1i
1r
0j
1k
#580000
0!
0.
05
#585000
1!
1.
15
1}
06
17
18
#590000
0!
0.
05
#595000
1!
1.
15
1|
0}
16
07
08
09
1d
0n
0t
1f
1:
18
19
0:
0u
0g
0p
1h
1v
0q
0i
0r
1j
0k
1s
1w
14
11
1$
#600000
0!
0.
05
#605000
1!
1.
15
1}
06
17
0w
08
09
1:
04
01
0$
#610000
0!
0.
05
#615000
1!
1.
15
0|
1{
0}
16
07
1w
0:
1;
1Q
1a
18
19
0d
1n
1t
0f
1:
0;
1u
0b
1S
0<
0=
08
1>
1_
1<
1=
0u
0v
14
0w
0>
11
1$
04
01
0$
#620000
0!
0.
05
#625000
1!
1.
15
1}
06
17
18
#630000
0!
0.
05
#635000
1!
1.
15
1|
0}
16
07
08
09
1d
0n
0t
1f
0:
1;
18
19
1:
0;
0<
0=
1u
1v
1w
0v
1>
1<
1=
0>
0w
14
11
04
1$
01
0$
#640000
0!
0.
05
#645000
1!
1.
15
1}
06
17
08
09
0:
1;
0<
0=
1>
#650000
0!
0.
05
#655000
1!
1.
15
0|
0{
0z
1y
0}
16
07
0>
1?
1L
1K
1[
1<
1=
1O
0D
0N
0^
1:
0;
0Q
0a
18
19
1B
0d
1n
1t
0f
0:
0u
1b
0S
0<
1p
0h
1m
0_
0L
1>
0?
1q
0l
0\
1U
1@
08
0Y
0V
0@
0q
0s
1_
1T
1u
1g
0p
1\
0U
0W
0[
1`
1c
0n
1Y
1V
1]
1s
0m
1W
1Z
0u
0g
1p
1l
0s
0p
1h
1r
0Z
1[
0]
0`
0c
1n
1u
1g
1p
0h
0l
0r
1m
1q
0q
0p
1s
#660000
0!
0.
05
#665000
1!
1.
15
1}
06
17
0B
18
#670000
0!
0.
05
#675000
1!
1.
15
1|
0}
16
07
08
09
1d
0n
0t
1f
1:
18
19
0:
0u
0g
1p
1v
1w
0s
0w
14
11
04
1$
01
0$
#680000
0!
0.
05
#685000
1!
1.
15
1}
06
17
08
09
1:
#690000
0!
0.
05
#695000
1!
1.
15
0|
1{
0}
16
07
0:
1;
1Q
1a
18
19
0d
1n
1t
0f
1:
0;
1u
0m
0b
1S
1<
08
0_
0T
0<
0u
0v
0\
1U
0Y
0V
0W
0[
0a
1u
1g
1m
1q
1i
1l
1r
0j
0p
1k
1o
1w
14
11
1$
#700000
0!
0.
05
#705000
1!
1.
15
1}
06
17
0w
18
04
01
0$
#710000
0!
0.
05
#715000
1!
1.
15
1|
0}
16
07
1w
08
09
1e
0n
0o
0t
1f
0:
1;
18
19
1:
0;
1<
0u
0g
0w
14
1p
1v
0<
11
1$
04
01
0$
#720000
0!
0.
05
#725000
1!
1.
15
1}
06
17
08
09
0:
1;
1<
#730000
0!
0.
05
#735000
1!
1.
15
0|
0{
1z
0}
16
07
0<
0=
0O
1D
1N
1:
0;
0Q
18
19
0e
1n
1o
1t
0f
0:
1b
0S
1<
1=
1_
1L
0>
1?
08
1@
1`
1>
0?
0_
1c
0n
1u
1g
0v
1w
0o
0u
0g
0`
0@
0w
14
11
1$
04
01
0$
#740000
0!
0.
05
#745000
1!
1.
15
1}
06
17
18
#750000
0!
0.
05
#755000
1!
1.
15
1|
0}
16
07
08
09
1e
0t
1f
1:
18
19
0:
1u
1v
0v
#760000
0!
0.
05
#765000
1!
1.
15
1}
06
17
08
09
1:
#770000
0!
0.
05
#775000
1!
1.
15
0|
1{
0}
16
07
0:
1;
1Q
18
19
0e
1t
0f
1:
0;
0b
1S
0<
0=
08
0>
1?
1_
0c
1n
1<
1=
0u
1>
0?
1o
1u
1g
1`
0n
1@
0o
1w
0@
0w
14
11
04
1$
01
0$
#780000
0!
0.
05
#785000
1!
1.
15
1}
06
17
18
#790000
0!
0.
05
#795000
1!
1.
15
1|
0}
16
07
08
09
1e
0t
1f
0:
1;
18
19
1:
0;
0<
0=
0u
0g
0p
1h
1v
0>
1?
1<
1=
1>
0?
1@
0q
0i
0r
1j
0@
0k
1s
1w
14
11
1$
#800000
0!
0.
05
#805000
1!
1.
15
1}
06
17
0w
08
09
0:
1;
04
0<
0=
01
0$
0>
1?
1@
#810000
0!
0.
05
#815000
1!
1.
15
0|
0{
0z
0y
1x
0}
16
07
1w
0@
0F
1G
1I
1>
0?
0L
0K
1<
1=
1O
0D
0N
1:
0;
0Q
18
19
1B
0e
1t
0f
0:
1b
0S
0<
0_
1L
1E
0>
1\
0U
1@
1Y
0H
08
0I
1P
1Z
0Y
1]
1F
0G
1M
0`
1_
1T
1c
1u
1g
0v
14
0w
0u
0g
1`
0h
1H
1J
1q
0Z
1r
0m
0_
0T
1Y
1V
11
1$
1W
1Z
0\
1U
0`
0r
0s
0Y
0V
1I
0J
0M
0P
0q
1h
1q
1_
1T
1\
0U
0W
1s
1p
0h
1Y
1r
1X
0Z
0]
0c
0l
1n
04
1u
1g
1m
1i
0X
1Z
1c
1l
0Y
1]
0\
1`
0n
0s
01
0$
0]
0q
0i
0Z
0u
0g
0m
0r
0p
1h
1q
1i
1m
1r
0j
0q
0i
0r
1j
1k
0k
1s
#820000
0!
0.
05
#825000
1!
1.
15
1}
06
17
0B
18
#830000
0!
0.
05
#835000
1!
1.
15
1|
0}
16
07
08
09
1e
0t
1f
1:
18
19
0:
1u
1v
1w
0v
0w
14
11
04
1$
01
0$
#840000
0!
0.
05
#845000
1!
1.
15
1}
06
17
08
09
1:
#850000
0!
0.
05
#855000
1!
1.
15
0|
1{
0}
16
07
0:
1;
1Q
18
19
0e
1t
0f
1:
0;
0b
1S
1<
08
0_
0T
0c
0<
0u
1u
1g
1\
0`
1n
1]
0h
0m
#860000
0!
0.
05
#865000
1!
1.
15
1}
06
17
18
#870000
0!
0.
05
#875000
1!
1.
15
1|
0}
16
07
08
09
1e
0n
0t
1f
0:
1;
18
19
1:
0;
1<
0u
0g
1p
1v
0<
1w
0s
0w
14
11
04
1$
01
0$
#880000
0!
0.
05
#885000
1!
1.
15
1}
06
17
08
09
0:
1;
1<
#890000
0!
0.
05
#895000
1!
1.
15
0|
0{
1z
0}
16
07
0<
0=
0O
1D
1N
1:
0;
0Q
18
19
0e
1n
1t
0f
0:
1b
0S
1<
1=
1_
0L
0E
1>
08
0F
1G
1`
0>
0_
1c
0n
1u
1g
0v
0u
0g
0`
0H
0I
0N
1_
1T
1Y
1V
1W
1Z
0\
1`
0p
1h
1r
0Z
0]
0`
0c
1n
1u
1g
1p
0h
0r
1m
1q
1i
0p
1r
0j
1k
1o
1w
14
11
1$
#900000
0!
0.
05
#905000
1!
1.
15
1}
06
17
0w
18
04
01
0$
#910000
0!
0.
05
#915000
1!
1.
15
1|
0}
16
07
1w
08
09
1d
0n
0o
0t
1f
1:
18
19
0:
0u
0g
0w
14
1p
1v
11
1$
04
01
0$
#920000
0!
0.
05
#925000
1!
1.
15
1}
06
17
08
09
1:
#930000
0!
0.
05
#935000
1!
1.
15
0|
1{
0}
16
07
0:
1;
1R
1a
18
19
0d
1n
1o
1t
0f
1:
0;
1u
0m
0b
1S
0<
0=
08
1>
0_
0T
0o
1<
1=
0u
0v
1w
0>
0w
1\
14
11
04
1$
01
0$
#940000
0!
0.
05
#945000
1!
1.
15
1}
06
17
18
#950000
0!
0.
05
#955000
1!
1.
15
1|
0}
16
07
08
09
1d
0n
0t
1f
0:
1;
18
19
1:
0;
0<
0=
1u
1v
0v
1>
1<
1=
0>
#960000
0!
0.
05
#965000
1!
1.
15
1}
06
17
08
09
0:
1;
0<
0=
1>
#970000
0!
0.
05
#975000
1!
1.
15
0|
0{
0z
1y
0}
16
07
0>
1?
1A
1L
1<
1=
1O
0D
1:
0;
0R
0a
18
19
1B
0d
1n
1t
0f
0A
0:
0u
1m
1b
0S
0<
0L
1P
1^
1>
0?
1M
1[
0@
08
0q
0i
0l
0\
1U
1@
0p
1h
0m
0M
0[
1o
1u
1g
1p
0h
1w
1l
1\
0U
0Y
0V
0o
0r
1j
0k
0w
0W
1Y
1V
1q
1i
1r
0j
1W
1Z
1]
0^
1c
0n
14
0u
0g
0p
0q
0i
0r
1j
0Z
0]
1^
0c
1n
1k
11
04
1$
1u
1g
1q
1i
0k
1h
01
0$
0q
0i
1r
0j
1p
0h
1q
1i
1k
0r
1j
0k
1r
0j
1k
#980000
0!
0.
05
#985000
1!
1.
15
1}
06
17
0B
1A
18
#990000
0!
0.
05
#995000
1!
1.
15
0y
0x
0}
16
07
1B
0@
1F
0G
0>
0A
1L
1E
0F
1M
1[
1H
1J
1X
1C
08
0r
1j
0Y
0V
0M
0P
0[
0^
0q
0i
0l
0\
1U
0J
0X
0p
1m
1q
1i
1l
1_
1T
1\
0U
0W
0k
13
1c
1Y
1V
1]
0\
1`
0n
1r
0j
10
1#
1k
1p
0]
0q
0i
0m
1W
1Z
0u
0g
0p
1h
0Z
0`
0c
1n
1j
1q
1i
0k
1u
1g
1p
0h
0j
1m
0q
0i
0r
1j
1k
1q
1i
0p
1r
0j
1o
0k
0o
1w
1k
1o
0w
1w
14
11
04
1$
01
14
0$
11
1$
